<?xml version="1.0" encoding="UTF-8"?>
<svg width="10px" height="6px" viewBox="0 0 10 6" version="1.1" xmlns="http://www.w3.org/2000/svg" xmlns:xlink="http://www.w3.org/1999/xlink">
    <title>Arrow</title>
    <defs></defs>
    <g id="Symbols" stroke="none" stroke-width="1" fill="none" fill-rule="evenodd">
        <g id="Icons/Dropdown-Arrow" transform="translate(1.000000, 1.000000)" fill-rule="nonzero" fill="#000000">
            <g id="Arrow" transform="translate(-1.000000, -1.000000)">
                <path d="M5,4.29289322 L1,0.292893219 L0.292893219,1 L4.64644661,5.35355339 L5,5.70710678 L9.70710678,1 L9,0.292893219 L5,4.29289322 Z"></path>
            </g>
        </g>
    </g>
</svg>