<!-- Generated by IcoMoon.io -->
<svg version="1.1" xmlns="http://www.w3.org/2000/svg" width="24" height="24" viewBox="0 0 24 24">
<title>new_window</title>
<path d="M9 5.016v1.969h6.609l-11.625 11.625 1.406 1.406 11.625-11.625v6.609h1.969v-9.984h-9.984z"></path>
</svg>
